[
  {
    "simplified": "爱",
    "traditional": "愛",
    "tones": "ai4",
    "pinyin": "ài",
    "definition": "love"
  },
  {
    "simplified": "八",
    "traditional": "八",
    "tones": "ba1",
    "pinyin": "bā",
    "definition": "eight"
  },
  {
    "simplified": "爸爸",
    "traditional": "爸爸",
    "tones": "ba4ba5",
    "pinyin": "bàba",
    "definition": "Dad"
  },
  {
    "simplified": "杯子",
    "traditional": "杯子",
    "tones": "bei1zi5",
    "pinyin": "bēizi",
    "definition": "cup; glass"
  },
  {
    "simplified": "北京",
    "traditional": "北京",
    "tones": "Bei3jing1",
    "pinyin": "Běijīng",
    "definition": "Beijing"
  },
  {
    "simplified": "本",
    "traditional": "本",
    "tones": "ben3",
    "pinyin": "běn",
    "definition": "measure word for books"
  },
  {
    "simplified": "不客气",
    "traditional": "不客氣",
    "tones": "bu2 ke4qi5",
    "pinyin": "bú kèqi",
    "definition": "you're welcome; don't be polite"
  },
  {
    "simplified": "不",
    "traditional": "不",
    "tones": "bu4",
    "pinyin": "bù",
    "definition": "no; not"
  },
  {
    "simplified": "菜",
    "traditional": "菜",
    "tones": "cai4",
    "pinyin": "cài",
    "definition": "dish (type of food); vegetables"
  },
  {
    "simplified": "茶",
    "traditional": "茶",
    "tones": "cha2",
    "pinyin": "chá",
    "definition": "tea"
  },
  {
    "simplified": "吃",
    "traditional": "吃",
    "tones": "chi1",
    "pinyin": "chī",
    "definition": "eat"
  },
  {
    "simplified": "出租车",
    "traditional": "出租車",
    "tones": "chu1zu1che1",
    "pinyin": "chūzūchē",
    "definition": "taxi; cab"
  },
  {
    "simplified": "打电话",
    "traditional": "打電話",
    "tones": "da3 dian4hua4",
    "pinyin": "dǎ diànhuà",
    "definition": "make a phone call"
  },
  {
    "simplified": "大",
    "traditional": "大",
    "tones": "da4",
    "pinyin": "dà",
    "definition": "big; large"
  },
  {
    "simplified": "的",
    "traditional": "的",
    "tones": "de5",
    "pinyin": "de",
    "definition": "indicates possession, like adding 's to a noun"
  },
  {
    "simplified": "点",
    "traditional": "點",
    "tones": "dian3",
    "pinyin": "diǎn",
    "definition": "a dot; a little; o'clock"
  },
  {
    "simplified": "电脑",
    "traditional": "電腦",
    "tones": "dian4nao3",
    "pinyin": "diànnǎo",
    "definition": "computer"
  },
  {
    "simplified": "电视",
    "traditional": "電視",
    "tones": "dian4shi4",
    "pinyin": "diànshì",
    "definition": "television; TV"
  },
  {
    "simplified": "电影",
    "traditional": "電影",
    "tones": "dian4ying3",
    "pinyin": "diànyǐng",
    "definition": "movie; film"
  },
  {
    "simplified": "东西",
    "traditional": "東西",
    "tones": "dong1xi5",
    "pinyin": "dōngxi",
    "definition": "things; stuff"
  },
  {
    "simplified": "都",
    "traditional": "都",
    "tones": "dou1",
    "pinyin": "dōu",
    "definition": "all; both"
  },
  {
    "simplified": "读",
    "traditional": "讀",
    "tones": "du2",
    "pinyin": "dú",
    "definition": "to read; to study"
  },
  {
    "simplified": "对不起",
    "traditional": "對不起",
    "tones": "dui4bu5qi3",
    "pinyin": "duìbuqǐ",
    "definition": "sorry"
  },
  {
    "simplified": "多",
    "traditional": "多",
    "tones": "duo1",
    "pinyin": "duō",
    "definition": "many"
  },
  {
    "simplified": "多少",
    "traditional": "多少",
    "tones": "duo1shao5",
    "pinyin": "duōshao",
    "definition": "how much?; how many?"
  },
  {
    "simplified": "儿子",
    "traditional": "兒子",
    "tones": "er2zi5",
    "pinyin": "érzi",
    "definition": "son"
  },
  {
    "simplified": "二",
    "traditional": "二",
    "tones": "er4",
    "pinyin": "èr",
    "definition": "two"
  },
  {
    "simplified": "饭店",
    "traditional": "飯店",
    "tones": "fan4dian4",
    "pinyin": "fàndiàn",
    "definition": "restaurant; hotel"
  },
  {
    "simplified": "飞机",
    "traditional": "飛機",
    "tones": "fei1ji1",
    "pinyin": "fēijī",
    "definition": "airplane"
  },
  {
    "simplified": "分钟",
    "traditional": "分鐘",
    "tones": "fen1zhong1",
    "pinyin": "fēnzhōng",
    "definition": "minute; (measure word for time)"
  },
  {
    "simplified": "高兴",
    "traditional": "高興",
    "tones": "gao1xing4",
    "pinyin": "gāoxìng",
    "definition": "happy; glad"
  },
  {
    "simplified": "个",
    "traditional": "個",
    "tones": "ge5",
    "pinyin": "ge",
    "definition": "general measure word"
  },
  {
    "simplified": "工作",
    "traditional": "工作",
    "tones": "gong1zuo4",
    "pinyin": "gōngzuò",
    "definition": "work; a job"
  },
  {
    "simplified": "狗",
    "traditional": "狗",
    "tones": "gou3",
    "pinyin": "gǒu",
    "definition": "dog"
  },
  {
    "simplified": "汉语",
    "traditional": "漢語",
    "tones": "Han4yu3",
    "pinyin": "Hànyǔ",
    "definition": "Chinese language"
  },
  {
    "simplified": "好",
    "traditional": "好",
    "tones": "hao3",
    "pinyin": "hǎo",
    "definition": "good"
  },
  {
    "simplified": "号",
    "traditional": "號",
    "tones": "hao4",
    "pinyin": "hào",
    "definition": "number; day of a month"
  },
  {
    "simplified": "喝",
    "traditional": "喝",
    "tones": "he1",
    "pinyin": "hē",
    "definition": "to drink"
  },
  {
    "simplified": "和",
    "traditional": "和",
    "tones": "he2",
    "pinyin": "hé",
    "definition": "and; with"
  },
  {
    "simplified": "很",
    "traditional": "很",
    "tones": "hen3",
    "pinyin": "hěn",
    "definition": "very; quite"
  },
  {
    "simplified": "后面",
    "traditional": "后面",
    "tones": "hou4mian5",
    "pinyin": "hòumian",
    "definition": "back; behind"
  },
  {
    "simplified": "回",
    "traditional": "回",
    "tones": "hui2",
    "pinyin": "huí",
    "definition": "to return; to reply; to go back"
  },
  {
    "simplified": "会",
    "traditional": "會",
    "tones": "hui4",
    "pinyin": "huì",
    "definition": "know how to"
  },
  {
    "simplified": "几",
    "traditional": "幾",
    "tones": "ji3",
    "pinyin": "jǐ",
    "definition": "how many; several; a few"
  },
  {
    "simplified": "家",
    "traditional": "家",
    "tones": "jia1",
    "pinyin": "jiā",
    "definition": "family; home"
  },
  {
    "simplified": "叫",
    "traditional": "叫",
    "tones": "jiao4",
    "pinyin": "jiào",
    "definition": "to be called"
  },
  {
    "simplified": "今天",
    "traditional": "今天",
    "tones": "jin1tian1",
    "pinyin": "jīntiān",
    "definition": "today"
  },
  {
    "simplified": "九",
    "traditional": "九",
    "tones": "jiu3",
    "pinyin": "jiǔ",
    "definition": "nine"
  },
  {
    "simplified": "开",
    "traditional": "開",
    "tones": "kai1",
    "pinyin": "kāi",
    "definition": "to open; to start; to operate (a vehicle)"
  },
  {
    "simplified": "看",
    "traditional": "看",
    "tones": "kan4",
    "pinyin": "kàn",
    "definition": "see; look at; to watch"
  },
  {
    "simplified": "看见",
    "traditional": "看見",
    "tones": "kan4jian4",
    "pinyin": "kànjiàn",
    "definition": "see; catch sight of"
  },
  {
    "simplified": "块",
    "traditional": "塊",
    "tones": "kuai4",
    "pinyin": "kuài",
    "definition": "lump; piece; sum of money"
  },
  {
    "simplified": "来",
    "traditional": "來",
    "tones": "lai2",
    "pinyin": "lái",
    "definition": "come; arrive; ever since; next"
  },
  {
    "simplified": "老师",
    "traditional": "老師",
    "tones": "lao3shi1",
    "pinyin": "lǎoshī",
    "definition": "teacher"
  },
  {
    "simplified": "了",
    "traditional": "了",
    "tones": "le5",
    "pinyin": "le",
    "definition": "indicates a completed or finished action"
  },
  {
    "simplified": "冷",
    "traditional": "冷",
    "tones": "leng3",
    "pinyin": "lěng",
    "definition": "cold"
  },
  {
    "simplified": "里",
    "traditional": "裡",
    "tones": "li3",
    "pinyin": "lǐ",
    "definition": "inside; Chinese mile (~.5 km)"
  },
  {
    "simplified": "六",
    "traditional": "六",
    "tones": "liu4",
    "pinyin": "liù",
    "definition": "six"
  },
  {
    "simplified": "妈妈",
    "traditional": "媽媽",
    "tones": "ma1ma5",
    "pinyin": "māma",
    "definition": "mom; mum"
  },
  {
    "simplified": "吗",
    "traditional": "嗎",
    "tones": "ma5",
    "pinyin": "ma",
    "definition": "indicates a yes/no question (added to a statement)"
  },
  {
    "simplified": "买",
    "traditional": "買",
    "tones": "mai3",
    "pinyin": "mǎi",
    "definition": "to buy"
  },
  {
    "simplified": "猫",
    "traditional": "貓",
    "tones": "mao1",
    "pinyin": "māo",
    "definition": "cat"
  },
  {
    "simplified": "没关系",
    "traditional": "沒關系",
    "tones": "mei2 guan1xi5",
    "pinyin": "méi guānxi",
    "definition": "it doesn't matter; never mind"
  },
  {
    "simplified": "没有",
    "traditional": "沒有",
    "tones": "mei2you3",
    "pinyin": "méiyǒu",
    "definition": "not have; there is not"
  },
  {
    "simplified": "米饭",
    "traditional": "米飯",
    "tones": "mi3fan4",
    "pinyin": "mǐfàn",
    "definition": "(cooked) rice"
  },
  {
    "simplified": "明天",
    "traditional": "明天",
    "tones": "ming2tian1",
    "pinyin": "míngtiān",
    "definition": "tomorrow"
  },
  {
    "simplified": "名字",
    "traditional": "名字",
    "tones": "ming2zi5",
    "pinyin": "míngzi",
    "definition": "name"
  },
  {
    "simplified": "哪",
    "traditional": "哪",
    "tones": "na3",
    "pinyin": "nǎa",
    "definition": "which; how"
  },
  {
    "simplified": "哪儿",
    "traditional": "哪兒",
    "tones": "na3r5",
    "pinyin": "nǎr",
    "definition": "where? (Beijing accent)"
  },
  {
    "simplified": "那",
    "traditional": "那",
    "tones": "na4",
    "pinyin": "nà",
    "definition": "that; then"
  },
  {
    "simplified": "呢",
    "traditional": "呢",
    "tones": "ne5",
    "pinyin": "ne",
    "definition": "indicates a question; how about...?;"
  },
  {
    "simplified": "能",
    "traditional": "能",
    "tones": "neng2",
    "pinyin": "néng",
    "definition": "can; be able"
  },
  {
    "simplified": "你",
    "traditional": "你",
    "tones": "ni3",
    "pinyin": "nǐ",
    "definition": "you (singular)"
  },
  {
    "simplified": "年",
    "traditional": "年",
    "tones": "nian2",
    "pinyin": "nián",
    "definition": "year"
  },
  {
    "simplified": "女儿",
    "traditional": "女兒",
    "tones": "nv3'er2",
    "pinyin": "nǚ'ér",
    "definition": "daughter"
  },
  {
    "simplified": "朋友",
    "traditional": "朋友",
    "tones": "peng2you5",
    "pinyin": "péngyou",
    "definition": "friend"
  },
  {
    "simplified": "漂亮",
    "traditional": "漂亮",
    "tones": "piao4liang5",
    "pinyin": "piàoliang",
    "definition": "pretty; beautiful"
  },
  {
    "simplified": "苹果",
    "traditional": "蘋果",
    "tones": "ping2guo3",
    "pinyin": "píngguǒ",
    "definition": "apple"
  },
  {
    "simplified": "七",
    "traditional": "七",
    "tones": "qi1",
    "pinyin": "qī",
    "definition": "seven"
  },
  {
    "simplified": "钱",
    "traditional": "錢",
    "tones": "qian2",
    "pinyin": "qián",
    "definition": "money; coin"
  },
  {
    "simplified": "前面",
    "traditional": "前面",
    "tones": "qian2mian4",
    "pinyin": "qiánmiàn",
    "definition": "in front"
  },
  {
    "simplified": "请",
    "traditional": "請",
    "tones": "qing3",
    "pinyin": "qǐng",
    "definition": "please; invite; to treat someone to something"
  },
  {
    "simplified": "去",
    "traditional": "去",
    "tones": "qu4",
    "pinyin": "qù",
    "definition": "go; to leave"
  },
  {
    "simplified": "热",
    "traditional": "熱",
    "tones": "re4",
    "pinyin": "rè",
    "definition": "heat; hot"
  },
  {
    "simplified": "人",
    "traditional": "人",
    "tones": "ren2",
    "pinyin": "rén",
    "definition": "person; man; people"
  },
  {
    "simplified": "认识",
    "traditional": "認識",
    "tones": "ren4shi5",
    "pinyin": "rènshi",
    "definition": "recognize; know (a person)"
  },
  {
    "simplified": "三",
    "traditional": "三",
    "tones": "san1",
    "pinyin": "sān",
    "definition": "three"
  },
  {
    "simplified": "商店",
    "traditional": "商店",
    "tones": "shang1dian4",
    "pinyin": "shāngdiàn",
    "definition": "shop; store"
  },
  {
    "simplified": "上",
    "traditional": "上",
    "tones": "shang4",
    "pinyin": "shàng",
    "definition": "above; up"
  },
  {
    "simplified": "上午",
    "traditional": "上午",
    "tones": "shang4wu3",
    "pinyin": "shàngwǔ",
    "definition": "late morning (before noon)"
  },
  {
    "simplified": "少",
    "traditional": "少",
    "tones": "shao3",
    "pinyin": "shǎo",
    "definition": "few; little"
  },
  {
    "simplified": "谁",
    "traditional": "誰",
    "tones": "shei2",
    "pinyin": "shéi",
    "definition": "who"
  },
  {
    "simplified": "什么",
    "traditional": "什麼",
    "tones": "shen2me5",
    "pinyin": "shénme",
    "definition": "what? (replaces the noun to turn a statement into a question)"
  },
  {
    "simplified": "十",
    "traditional": "十",
    "tones": "shi2",
    "pinyin": "shí",
    "definition": "ten"
  },
  {
    "simplified": "时候",
    "traditional": "時候",
    "tones": "shi2hou5",
    "pinyin": "shíhou",
    "definition": "time"
  },
  {
    "simplified": "是",
    "traditional": "是",
    "tones": "shi4",
    "pinyin": "shì",
    "definition": "be; is; are; am"
  },
  {
    "simplified": "书",
    "traditional": "書",
    "tones": "shu1",
    "pinyin": "shū",
    "definition": "book; letter"
  },
  {
    "simplified": "水",
    "traditional": "水",
    "tones": "shui3",
    "pinyin": "shuǐ",
    "definition": "water"
  },
  {
    "simplified": "水果",
    "traditional": "水果",
    "tones": "shui3guo3",
    "pinyin": "shuǐguǒ",
    "definition": "fruit"
  },
  {
    "simplified": "睡觉",
    "traditional": "睡覺",
    "tones": "shui4 jiao4",
    "pinyin": "shuì jiào",
    "definition": "to sleep; go to bed"
  },
  {
    "simplified": "说",
    "traditional": "說",
    "tones": "shuo1",
    "pinyin": "shuō",
    "definition": "speak"
  },
  {
    "simplified": "四",
    "traditional": "四",
    "tones": "si4",
    "pinyin": "sì",
    "definition": "four"
  },
  {
    "simplified": "岁",
    "traditional": "歲",
    "tones": "sui4",
    "pinyin": "suì",
    "definition": "years old; age"
  },
  {
    "simplified": "他",
    "traditional": "他",
    "tones": "ta1",
    "pinyin": "tā",
    "definition": "he; him"
  },
  {
    "simplified": "她",
    "traditional": "她",
    "tones": "ta1",
    "pinyin": "tā",
    "definition": "she"
  },
  {
    "simplified": "太",
    "traditional": "太",
    "tones": "tai4",
    "pinyin": "tài",
    "definition": "too (much)"
  },
  {
    "simplified": "天气",
    "traditional": "天氣",
    "tones": "tian1qi4",
    "pinyin": "tiānqì",
    "definition": "weather"
  },
  {
    "simplified": "听",
    "traditional": "聽",
    "tones": "ting1",
    "pinyin": "tīng",
    "definition": "listen; hear"
  },
  {
    "simplified": "同学",
    "traditional": "同學",
    "tones": "tong2xue2",
    "pinyin": "tóngxué",
    "definition": "fellow student; schoolmate"
  },
  {
    "simplified": "喂",
    "traditional": "喂",
    "tones": "wei4",
    "pinyin": "wèi",
    "definition": "hello (on the phone)"
  },
  {
    "simplified": "我",
    "traditional": "我",
    "tones": "wo3",
    "pinyin": "wǒ",
    "definition": "I; me"
  },
  {
    "simplified": "我们",
    "traditional": "我們",
    "tones": "wo3men5",
    "pinyin": "wǒmen",
    "definition": "we; us"
  },
  {
    "simplified": "五",
    "traditional": "五",
    "tones": "wu3",
    "pinyin": "wǔ",
    "definition": "five"
  },
  {
    "simplified": "喜欢",
    "traditional": "喜歡",
    "tones": "xi3huan5",
    "pinyin": "xǐhuan",
    "definition": "to like"
  },
  {
    "simplified": "下",
    "traditional": "下",
    "tones": "xia4",
    "pinyin": "xià",
    "definition": "fall; below"
  },
  {
    "simplified": "下午",
    "traditional": "下午",
    "tones": "xia4wu3",
    "pinyin": "xiàwǔ",
    "definition": "afternoon"
  },
  {
    "simplified": "下雨",
    "traditional": "下雨",
    "tones": "xia4yu3",
    "pinyin": "xiàyǔ",
    "definition": "to rain"
  },
  {
    "simplified": "先生",
    "traditional": "先生",
    "tones": "xian1sheng5",
    "pinyin": "xiānsheng",
    "definition": "Mr.; Sir"
  },
  {
    "simplified": "现在",
    "traditional": "現在",
    "tones": "xian4zai4",
    "pinyin": "xiànzài",
    "definition": "now"
  },
  {
    "simplified": "想",
    "traditional": "想",
    "tones": "xiang3",
    "pinyin": "xiǎng",
    "definition": "think; believe; suppose; would like to"
  },
  {
    "simplified": "小",
    "traditional": "小",
    "tones": "xiao3",
    "pinyin": "xiǎo",
    "definition": "small; young"
  },
  {
    "simplified": "小姐",
    "traditional": "小姐",
    "tones": "xiao3jie5",
    "pinyin": "xiǎojie",
    "definition": "young lady; miss; Ms."
  },
  {
    "simplified": "些",
    "traditional": "些",
    "tones": "xie1",
    "pinyin": "xiē",
    "definition": "some; few; several"
  },
  {
    "simplified": "写",
    "traditional": "寫",
    "tones": "xie3",
    "pinyin": "xiě",
    "definition": "to write; to compose"
  },
  {
    "simplified": "谢谢",
    "traditional": "謝謝",
    "tones": "xie4xie5",
    "pinyin": "xièxie",
    "definition": "thank you"
  },
  {
    "simplified": "星期",
    "traditional": "星期",
    "tones": "xing1qi1",
    "pinyin": "xīngqī",
    "definition": "week"
  },
  {
    "simplified": "学生",
    "traditional": "學生",
    "tones": "xue2sheng5",
    "pinyin": "xuésheng",
    "definition": "student"
  },
  {
    "simplified": "学习",
    "traditional": "學習",
    "tones": "xue2xi2",
    "pinyin": "xuéxí",
    "definition": "learn; to study"
  },
  {
    "simplified": "学校",
    "traditional": "學校",
    "tones": "xue2xiao4",
    "pinyin": "xuéxiào",
    "definition": "school"
  },
  {
    "simplified": "一",
    "traditional": "一",
    "tones": "yi1",
    "pinyin": "yī",
    "definition": "one; once; a"
  },
  {
    "simplified": "衣服",
    "traditional": "衣服",
    "tones": "yi1fu5",
    "pinyin": "yīfu",
    "definition": "clothes"
  },
  {
    "simplified": "医生",
    "traditional": "醫生",
    "tones": "yi1sheng1",
    "pinyin": "yīshēng",
    "definition": "doctor"
  },
  {
    "simplified": "医院",
    "traditional": "醫院",
    "tones": "yi1yuan4",
    "pinyin": "yīyuàn",
    "definition": "hospital"
  },
  {
    "simplified": "椅子",
    "traditional": "椅子",
    "tones": "yi3zi5",
    "pinyin": "yǐzi",
    "definition": "chair"
  },
  {
    "simplified": "一点儿",
    "traditional": "一點兒",
    "tones": "yi4dian3r5",
    "pinyin": "yìdiǎnr",
    "definition": "a bit; a few"
  },
  {
    "simplified": "有",
    "traditional": "有",
    "tones": "you3",
    "pinyin": "yǒu",
    "definition": "have"
  },
  {
    "simplified": "月",
    "traditional": "月",
    "tones": "yue4",
    "pinyin": "yuè",
    "definition": "moon; month"
  },
  {
    "simplified": "在",
    "traditional": "在",
    "tones": "zai4",
    "pinyin": "zài",
    "definition": "at; on; in; indicates an action in progress"
  },
  {
    "simplified": "再见",
    "traditional": "再見",
    "tones": "zai4jian4",
    "pinyin": "zàijiàn",
    "definition": "goodbye; see you later"
  },
  {
    "simplified": "怎么",
    "traditional": "怎麼",
    "tones": "zen3me5",
    "pinyin": "zěnme",
    "definition": "how?"
  },
  {
    "simplified": "怎么样",
    "traditional": "怎麼樣",
    "tones": "zen3me5yang4",
    "pinyin": "zěnmeyàng",
    "definition": "how about?; how is/was it?"
  },
  {
    "simplified": "这",
    "traditional": "這",
    "tones": "zhe4",
    "pinyin": "zhè",
    "definition": "this"
  },
  {
    "simplified": "中国",
    "traditional": "中國",
    "tones": "Zhong1guo2",
    "pinyin": "Zhōngguó",
    "definition": "China"
  },
  {
    "simplified": "中午",
    "traditional": "中午",
    "tones": "zhong1wu3",
    "pinyin": "zhōngwǔ",
    "definition": "noon; midday"
  },
  {
    "simplified": "住",
    "traditional": "住",
    "tones": "zhu4",
    "pinyin": "zhù",
    "definition": "to live; reside; to stop"
  },
  {
    "simplified": "桌子",
    "traditional": "桌子",
    "tones": "zhuo1zi5",
    "pinyin": "zhuōzi",
    "definition": "table; desk"
  },
  {
    "simplified": "字",
    "traditional": "字",
    "tones": "zi4",
    "pinyin": "zì",
    "definition": "letter; character"
  },
  {
    "simplified": "昨天",
    "traditional": "昨天",
    "tones": "zuo2tian1",
    "pinyin": "zuótiān",
    "definition": "yesterday"
  },
  {
    "simplified": "做",
    "traditional": "做",
    "tones": "zuo4",
    "pinyin": "zuò",
    "definition": "do; make"
  },
  {
    "simplified": "坐",
    "traditional": "坐",
    "tones": "zuo4",
    "pinyin": "zuò",
    "definition": "sit"
  }
]