[
  {
    "simplified": "吧",
    "traditional": "吧",
    "tones": "ba5",
    "pinyin": "ba",
    "definition": "particle indicating polite suggestion; | onomatopoeia | bar (serving drinks, providing internet access, etc.)"
  },
  {
    "simplified": "白",
    "traditional": "白",
    "tones": "bai2",
    "pinyin": "bái",
    "definition": "white; snowy; pure; bright; empty (Kangxi radical 106)"
  },
  {
    "simplified": "百",
    "traditional": "百",
    "tones": "bai3",
    "pinyin": "bǎi",
    "definition": "hundred"
  },
  {
    "simplified": "帮助",
    "traditional": "幫助",
    "tones": "bang1zhu4",
    "pinyin": "bāngzhù",
    "definition": "help; assist; aid"
  },
  {
    "simplified": "报纸",
    "traditional": "報紙",
    "tones": "bao4zhi3",
    "pinyin": "bàozhǐ",
    "definition": "newspaper"
  },
  {
    "simplified": "比",
    "traditional": "比",
    "tones": "bi3",
    "pinyin": "bǐ",
    "definition": "compare; (indicates comparison) (Kangxi radical 81); to gesticulate as one talks"
  },
  {
    "simplified": "别",
    "traditional": "別",
    "tones": "bie2",
    "pinyin": "bié",
    "definition": "don't do something; don't | depart; | other; difference; distinguish"
  },
  {
    "simplified": "宾馆",
    "traditional": "賓館",
    "tones": "bin1guan3",
    "pinyin": "bīnguǎn",
    "definition": "guesthouse; hotel"
  },
  {
    "simplified": "长",
    "traditional": "長",
    "tones": "chang2, zhang3",
    "pinyin": "cháng, zhǎng",
    "definition": "long; length | grow; chief (Kangxi radical 168)"
  },
  {
    "simplified": "唱歌",
    "traditional": "唱歌",
    "tones": "chang4ge1",
    "pinyin": "chànggē",
    "definition": "sing (a song)"
  },
  {
    "simplified": "出",
    "traditional": "出",
    "tones": "chu1",
    "pinyin": "chū",
    "definition": "go out; occur"
  },
  {
    "simplified": "穿",
    "traditional": "穿",
    "tones": "chuan1",
    "pinyin": "chuān",
    "definition": "to wear; put on; penetrate"
  },
  {
    "simplified": "次",
    "traditional": "次",
    "tones": "ci4",
    "pinyin": "cì",
    "definition": "(mw for number of times of occurrence); nth; order"
  },
  {
    "simplified": "从",
    "traditional": "從",
    "tones": "cong2",
    "pinyin": "cóng",
    "definition": "from; obey; observe"
  },
  {
    "simplified": "错",
    "traditional": "錯",
    "tones": "cuo4",
    "pinyin": "cuò",
    "definition": "mistake; error; blunder; miss an opportunity"
  },
  {
    "simplified": "打篮球",
    "traditional": "打籃球",
    "tones": "da3 lan2qiu2",
    "pinyin": "dǎ lánqiú",
    "definition": "play basketball"
  },
  {
    "simplified": "大家",
    "traditional": "大家",
    "tones": "da4jia1",
    "pinyin": "dàjiā",
    "definition": "everyone"
  },
  {
    "simplified": "到",
    "traditional": "到",
    "tones": "dao4",
    "pinyin": "dào",
    "definition": "arrive (at a place); until (a time)"
  },
  {
    "simplified": "得",
    "traditional": "得",
    "tones": "de5",
    "pinyin": "de",
    "definition": "(complement particle)"
  },
  {
    "simplified": "等",
    "traditional": "等",
    "tones": "deng3",
    "pinyin": "děng",
    "definition": "to wait; rank; equal; etc."
  },
  {
    "simplified": "弟弟",
    "traditional": "弟弟",
    "tones": "di4di5",
    "pinyin": "dìdi",
    "definition": "younger brother"
  },
  {
    "simplified": "第一",
    "traditional": "第一",
    "tones": "di4yi1",
    "pinyin": "dìyī",
    "definition": "first; number 1"
  },
  {
    "simplified": "懂",
    "traditional": "懂",
    "tones": "dong3",
    "pinyin": "dǒng",
    "definition": "understand; know"
  },
  {
    "simplified": "对",
    "traditional": "對",
    "tones": "dui4",
    "pinyin": "duì",
    "definition": "correct; a pair; to face; be opposite; to; towards"
  },
  {
    "simplified": "房间",
    "traditional": "房間",
    "tones": "fang2jian1",
    "pinyin": "fángjiān",
    "definition": "room"
  },
  {
    "simplified": "非常",
    "traditional": "非常",
    "tones": "fei1chang2",
    "pinyin": "fēicháng",
    "definition": "extremely; extraordinary; very"
  },
  {
    "simplified": "服务员",
    "traditional": "服務員",
    "tones": "fu2wu4yuan2",
    "pinyin": "fúwùyuán",
    "definition": "waiter/waitress; server; attendant"
  },
  {
    "simplified": "高",
    "traditional": "高",
    "tones": "gao1",
    "pinyin": "gāo",
    "definition": "high; tall (Kangxi radical 189)"
  },
  {
    "simplified": "告诉",
    "traditional": "告訴",
    "tones": "gao4su5",
    "pinyin": "gàosu",
    "definition": "to tell; inform"
  },
  {
    "simplified": "哥哥",
    "traditional": "哥哥",
    "tones": "ge1ge5",
    "pinyin": "gēge",
    "definition": "older brother"
  },
  {
    "simplified": "给",
    "traditional": "給",
    "tones": "gei3",
    "pinyin": "gěi",
    "definition": "to give; to grant; (passive particle)"
  },
  {
    "simplified": "公共汽车",
    "traditional": "公共汽車",
    "tones": "gong1gong4 qi4che1",
    "pinyin": "gōnggòng qìchē",
    "definition": "(public) bus"
  },
  {
    "simplified": "公司",
    "traditional": "公司",
    "tones": "gong1si1",
    "pinyin": "gōngsī",
    "definition": "company; corporation"
  },
  {
    "simplified": "贵",
    "traditional": "貴",
    "tones": "gui4",
    "pinyin": "guì",
    "definition": "expensive; noble; honorable; Guizhou province (abbreviation)"
  },
  {
    "simplified": "过",
    "traditional": "過",
    "tones": "guo4",
    "pinyin": "guò",
    "definition": "to pass; to cross; go over; (indicates a past experience)"
  },
  {
    "simplified": "还",
    "traditional": "還",
    "tones": "hai2",
    "pinyin": "hái",
    "definition": "still; yet; in addition; even"
  },
  {
    "simplified": "孩子",
    "traditional": "孩子",
    "tones": "hai2zi5",
    "pinyin": "háizi",
    "definition": "child; children; son or daughter"
  },
  {
    "simplified": "好吃",
    "traditional": "好吃",
    "tones": "hao3chi1",
    "pinyin": "hǎochī",
    "definition": "tasty"
  },
  {
    "simplified": "黑",
    "traditional": "黑",
    "tones": "hei1",
    "pinyin": "hēi",
    "definition": "black; dark (Kangxi radical 203); Heilongjiang province (abbreviation)"
  },
  {
    "simplified": "红",
    "traditional": "紅",
    "tones": "hong2",
    "pinyin": "hóng",
    "definition": "red; symbol of success; bonus; popular"
  },
  {
    "simplified": "火车站",
    "traditional": "火車站",
    "tones": "huo3che1zhan4",
    "pinyin": "huǒchēzhàn",
    "definition": "train station"
  },
  {
    "simplified": "机场",
    "traditional": "機場",
    "tones": "ji1chang3",
    "pinyin": "jīchǎng",
    "definition": "airport; airfield"
  },
  {
    "simplified": "鸡蛋",
    "traditional": "雞蛋",
    "tones": "ji1dan4",
    "pinyin": "jīdàn",
    "definition": "(chicken) egg"
  },
  {
    "simplified": "件",
    "traditional": "件",
    "tones": "jian4",
    "pinyin": "jiàn",
    "definition": "(mw for things, clothes, and items)"
  },
  {
    "simplified": "教室",
    "traditional": "教室",
    "tones": "jiao4shi4",
    "pinyin": "jiàoshì",
    "definition": "classroom"
  },
  {
    "simplified": "姐姐",
    "traditional": "姐姐",
    "tones": "jie3jie5",
    "pinyin": "jiějie",
    "definition": "older sister"
  },
  {
    "simplified": "介绍",
    "traditional": "介紹",
    "tones": "jie4shao4",
    "pinyin": "jièshào",
    "definition": "to introduce; recommend; introduction"
  },
  {
    "simplified": "进",
    "traditional": "進",
    "tones": "jin4",
    "pinyin": "jìn",
    "definition": "enter; come in"
  },
  {
    "simplified": "近",
    "traditional": "近",
    "tones": "jin4",
    "pinyin": "jìn",
    "definition": "near; close (to)"
  },
  {
    "simplified": "就",
    "traditional": "就",
    "tones": "jiu4",
    "pinyin": "jiù",
    "definition": "then; at once; just; only; with regard to"
  },
  {
    "simplified": "觉得",
    "traditional": "覺得",
    "tones": "jue2de5",
    "pinyin": "juéde",
    "definition": "feel; think"
  },
  {
    "simplified": "咖啡",
    "traditional": "咖啡",
    "tones": "ka1fei1",
    "pinyin": "kāfēi",
    "definition": "coffee"
  },
  {
    "simplified": "开始",
    "traditional": "開始",
    "tones": "kai1shi3",
    "pinyin": "kāishǐ",
    "definition": "begin; to start; beginning"
  },
  {
    "simplified": "考试",
    "traditional": "考試",
    "tones": "kao3shi4",
    "pinyin": "kǎoshì",
    "definition": "test; exam; to give or take a test"
  },
  {
    "simplified": "可能",
    "traditional": "可能",
    "tones": "ke3neng2",
    "pinyin": "kěnéng",
    "definition": "possible; maybe"
  },
  {
    "simplified": "可以",
    "traditional": "可以",
    "tones": "ke3yi3",
    "pinyin": "kěyǐ",
    "definition": "can; may; possible; okay"
  },
  {
    "simplified": "课",
    "traditional": "課",
    "tones": "ke4",
    "pinyin": "kè",
    "definition": "class; subject; lesson; course"
  },
  {
    "simplified": "快",
    "traditional": "快",
    "tones": "kuai4",
    "pinyin": "kuài",
    "definition": "fast; quick; swift"
  },
  {
    "simplified": "快乐",
    "traditional": "快樂",
    "tones": "kuai4le4",
    "pinyin": "kuàilè",
    "definition": "happy"
  },
  {
    "simplified": "累",
    "traditional": "累",
    "tones": "lei4",
    "pinyin": "lèi",
    "definition": "tired"
  },
  {
    "simplified": "离",
    "traditional": "離",
    "tones": "li2",
    "pinyin": "lí",
    "definition": "leave; depart; go away; apart from"
  },
  {
    "simplified": "两",
    "traditional": "兩",
    "tones": "liang3",
    "pinyin": "liǎng",
    "definition": "two; 2; both; (unit of weight equal to 50 grams)"
  },
  {
    "simplified": "零",
    "traditional": "零",
    "tones": "ling2",
    "pinyin": "líng",
    "definition": "zero; remnant"
  },
  {
    "simplified": "路",
    "traditional": "路",
    "tones": "lu4",
    "pinyin": "lù",
    "definition": "road; path; journey; route"
  },
  {
    "simplified": "旅游",
    "traditional": "旅游",
    "tones": "lv3you2",
    "pinyin": "lǚyóu",
    "definition": "trip; journey; tour"
  },
  {
    "simplified": "卖",
    "traditional": "賣",
    "tones": "mai4",
    "pinyin": "mài",
    "definition": "to sell"
  },
  {
    "simplified": "慢",
    "traditional": "慢",
    "tones": "man4",
    "pinyin": "màn",
    "definition": "slow"
  },
  {
    "simplified": "忙",
    "traditional": "忙",
    "tones": "mang2",
    "pinyin": "máng",
    "definition": "busy"
  },
  {
    "simplified": "每",
    "traditional": "每",
    "tones": "mei3",
    "pinyin": "měi",
    "definition": "each; every"
  },
  {
    "simplified": "妹妹",
    "traditional": "妹妹",
    "tones": "mei4mei5",
    "pinyin": "mèimei",
    "definition": "younger sister"
  },
  {
    "simplified": "门",
    "traditional": "門",
    "tones": "men2",
    "pinyin": "mén",
    "definition": "door; opening; gate (Kangxi radical 169)"
  },
  {
    "simplified": "面条",
    "traditional": "面條",
    "tones": "mian4tiao2",
    "pinyin": "miàntiáo",
    "definition": "noodles"
  },
  {
    "simplified": "男",
    "traditional": "男",
    "tones": "nan2",
    "pinyin": "nán",
    "definition": "male"
  },
  {
    "simplified": "您",
    "traditional": "您",
    "tones": "nin2",
    "pinyin": "nín",
    "definition": "you (polite)"
  },
  {
    "simplified": "牛奶",
    "traditional": "牛奶",
    "tones": "niu2nai3",
    "pinyin": "niúnǎi",
    "definition": "cow's milk"
  },
  {
    "simplified": "女",
    "traditional": "女",
    "tones": "nv3",
    "pinyin": "nǚ",
    "definition": "woman; female (Kangxi radical 38)"
  },
  {
    "simplified": "旁边",
    "traditional": "旁邊",
    "tones": "pang2bian1",
    "pinyin": "pángbiān",
    "definition": "side, beside"
  },
  {
    "simplified": "跑步",
    "traditional": "跑步",
    "tones": "pao3bu4",
    "pinyin": "pǎobù",
    "definition": "to run; to jog"
  },
  {
    "simplified": "便宜",
    "traditional": "便宜",
    "tones": "pian2yi5",
    "pinyin": "piányi",
    "definition": "cheap"
  },
  {
    "simplified": "票",
    "traditional": "票",
    "tones": "piao4",
    "pinyin": "piào",
    "definition": "ticket; bank note; a vote"
  },
  {
    "simplified": "妻子",
    "traditional": "妻子",
    "tones": "qi1zi5",
    "pinyin": "qīzi",
    "definition": "wife"
  },
  {
    "simplified": "起床",
    "traditional": "起床",
    "tones": "qi3chuang2",
    "pinyin": "qǐ chuáng",
    "definition": "get out of bed"
  },
  {
    "simplified": "千",
    "traditional": "千",
    "tones": "qian1",
    "pinyin": "qiān",
    "definition": "one thousand"
  },
  {
    "simplified": "铅笔",
    "traditional": "鉛筆",
    "tones": "qian1bi3",
    "pinyin": "qiānbǐ",
    "definition": "pencil"
  },
  {
    "simplified": "晴",
    "traditional": "晴",
    "tones": "qing2",
    "pinyin": "qíng",
    "definition": "clear; fine (as of weather)"
  },
  {
    "simplified": "去年",
    "traditional": "去年",
    "tones": "qu4nian2",
    "pinyin": "qùnián",
    "definition": "last year"
  },
  {
    "simplified": "让",
    "traditional": "讓",
    "tones": "rang4",
    "pinyin": "ràng",
    "definition": "ask; let; yield"
  },
  {
    "simplified": "日",
    "traditional": "日",
    "tones": "ri4",
    "pinyin": "rì",
    "definition": "sun; day; date; time (Kangxi radical 72)"
  },
  {
    "simplified": "上班",
    "traditional": "上班",
    "tones": "shang4ban1",
    "pinyin": "shàngbān",
    "definition": "go to work; be on duty"
  },
  {
    "simplified": "身体",
    "traditional": "身體",
    "tones": "shen1ti3",
    "pinyin": "shēntǐ",
    "definition": "health; (human) body"
  },
  {
    "simplified": "生病",
    "traditional": "生病",
    "tones": "sheng1bing4",
    "pinyin": "shēngbìng",
    "definition": "get sick; fall ill"
  },
  {
    "simplified": "生日",
    "traditional": "生日",
    "tones": "sheng1ri4",
    "pinyin": "shēngrì",
    "definition": "birthday"
  },
  {
    "simplified": "时间",
    "traditional": "時間",
    "tones": "shi2jian1",
    "pinyin": "shíjiān",
    "definition": "time; period"
  },
  {
    "simplified": "事情",
    "traditional": "事情",
    "tones": "shi4qing5",
    "pinyin": "shìqing",
    "definition": "matter; affair; thing; business"
  },
  {
    "simplified": "手表",
    "traditional": "手表",
    "tones": "shou3biao3",
    "pinyin": "shǒubiǎo",
    "definition": "wristwatch"
  },
  {
    "simplified": "手机",
    "traditional": "手機",
    "tones": "shou3ji1",
    "pinyin": "shǒujī",
    "definition": "mobile (cell) phone"
  },
  {
    "simplified": "说话",
    "traditional": "說話",
    "tones": "shuo1hua4",
    "pinyin": "shuōhuà",
    "definition": "to talk; speak"
  },
  {
    "simplified": "送",
    "traditional": "送",
    "tones": "song4",
    "pinyin": "sòng",
    "definition": "deliver; to carry; to give; send"
  },
  {
    "simplified": "虽然",
    "traditional": "雖然",
    "tones": "sui1ran2",
    "pinyin": "suīrán",
    "definition": "although; even though"
  },
  {
    "simplified": "但是",
    "traditional": "但是",
    "tones": "dan4shi4",
    "pinyin": "dànshì",
    "definition": "but; however"
  },
  {
    "simplified": "它",
    "traditional": "它",
    "tones": "ta1",
    "pinyin": "tā",
    "definition": "it"
  },
  {
    "simplified": "踢足球",
    "traditional": "踢足球",
    "tones": "ti1zu2qiu2",
    "pinyin": "tīzúqiú",
    "definition": "to play football/soccer"
  },
  {
    "simplified": "题",
    "traditional": "題",
    "tones": "ti2",
    "pinyin": "tí",
    "definition": "topic; subject; question on a test or assignment"
  },
  {
    "simplified": "跳舞",
    "traditional": "跳舞",
    "tones": "tiao4wu3",
    "pinyin": "tiàowǔ",
    "definition": "to dance"
  },
  {
    "simplified": "外",
    "traditional": "外",
    "tones": "wai4",
    "pinyin": "wài",
    "definition": "outer; outside; in addition; foreign"
  },
  {
    "simplified": "完",
    "traditional": "完",
    "tones": "wan2",
    "pinyin": "wán",
    "definition": "to finish; be over; complete"
  },
  {
    "simplified": "玩",
    "traditional": "玩",
    "tones": "wan2",
    "pinyin": "wán",
    "definition": "to play; have a good time; visit; enjoy"
  },
  {
    "simplified": "晚上",
    "traditional": "晚上",
    "tones": "wan3shang5",
    "pinyin": "wǎnshang",
    "definition": "evening; night"
  },
  {
    "simplified": "往",
    "traditional": "往",
    "tones": "wang3",
    "pinyin": "wǎng",
    "definition": "to go (in a direction); towards; in the past"
  },
  {
    "simplified": "为什么",
    "traditional": "為什麼",
    "tones": "wei4shen2me5",
    "pinyin": "wèishénme",
    "definition": "why?; for what reason?"
  },
  {
    "simplified": "问",
    "traditional": "問",
    "tones": "wen4",
    "pinyin": "wèn",
    "definition": "ask; inquire"
  },
  {
    "simplified": "问题",
    "traditional": "問題",
    "tones": "wen4ti2",
    "pinyin": "wèntí",
    "definition": "question; problem"
  },
  {
    "simplified": "西瓜",
    "traditional": "西瓜",
    "tones": "xi1gua1",
    "pinyin": "xīguā",
    "definition": "watermelon"
  },
  {
    "simplified": "希望",
    "traditional": "希望",
    "tones": "xi1wang4",
    "pinyin": "xīwàng",
    "definition": "to hope; wish for; to desire"
  },
  {
    "simplified": "洗",
    "traditional": "洗",
    "tones": "xi3",
    "pinyin": "xǐ",
    "definition": "to wash; bathe"
  },
  {
    "simplified": "小时",
    "traditional": "小時",
    "tones": "xiao3shi2",
    "pinyin": "xiǎoshí",
    "definition": "hour"
  },
  {
    "simplified": "笑",
    "traditional": "笑",
    "tones": "xiao4",
    "pinyin": "xiào",
    "definition": "to laugh; to smile"
  },
  {
    "simplified": "新",
    "traditional": "新",
    "tones": "xin1",
    "pinyin": "xīn",
    "definition": "new; Xinjiang autonomous region (abbreviation)"
  },
  {
    "simplified": "姓",
    "traditional": "姓",
    "tones": "xing4",
    "pinyin": "xìng",
    "definition": "surname; family name"
  },
  {
    "simplified": "休息",
    "traditional": "休息",
    "tones": "xiu1xi5",
    "pinyin": "xiūxi",
    "definition": "to rest; take a break"
  },
  {
    "simplified": "雪",
    "traditional": "雪",
    "tones": "xue3",
    "pinyin": "xuě",
    "definition": "snow"
  },
  {
    "simplified": "颜色",
    "traditional": "顏色",
    "tones": "yan2se4",
    "pinyin": "yánsè",
    "definition": "color"
  },
  {
    "simplified": "眼睛",
    "traditional": "眼睛",
    "tones": "yan3jing5",
    "pinyin": "yǎnjing",
    "definition": "eye"
  },
  {
    "simplified": "羊肉",
    "traditional": "羊肉",
    "tones": "yang2rou4",
    "pinyin": "yángròu",
    "definition": "mutton; lamb"
  },
  {
    "simplified": "药",
    "traditional": "藥",
    "tones": "yao4",
    "pinyin": "yào",
    "definition": "medicine; drug; cure; chemical"
  },
  {
    "simplified": "要",
    "traditional": "要",
    "tones": "yao4",
    "pinyin": "yào",
    "definition": "to want; to need; will/shall; important"
  },
  {
    "simplified": "也",
    "traditional": "也",
    "tones": "ye3",
    "pinyin": "yě",
    "definition": "also; too"
  },
  {
    "simplified": "一起",
    "traditional": "一起",
    "tones": "yi4qi3",
    "pinyin": "yìqǐ",
    "definition": "together; in the same place"
  },
  {
    "simplified": "一下",
    "traditional": "一下",
    "tones": "yi2xia4",
    "pinyin": "yíxià",
    "definition": "a little bit/while; one time; once"
  },
  {
    "simplified": "已经",
    "traditional": "已經",
    "tones": "yi3jing5",
    "pinyin": "yǐjing",
    "definition": "already"
  },
  {
    "simplified": "意思",
    "traditional": "意思",
    "tones": "yi4si5",
    "pinyin": "yìsi",
    "definition": "meaning; idea; opinion"
  },
  {
    "simplified": "因为",
    "traditional": "因為",
    "tones": "yin1wei4",
    "pinyin": "yīnwèi",
    "definition": "because"
  },
  {
    "simplified": "所以",
    "traditional": "所以",
    "tones": "suo3yi3",
    "pinyin": "suǒyǐ",
    "definition": "so; therefore; as a result"
  },
  {
    "simplified": "阴",
    "traditional": "陰",
    "tones": "yin1",
    "pinyin": "yīn",
    "definition": "cloudy (weather); yin (the negative principle of Yin and Yang); secret; the moon; negative; shade"
  },
  {
    "simplified": "游泳",
    "traditional": "游泳",
    "tones": "you2yong3",
    "pinyin": "yóuyǒng",
    "definition": "to swim"
  },
  {
    "simplified": "右边",
    "traditional": "右邊",
    "tones": "you4bian5",
    "pinyin": "yòubian",
    "definition": "the right (as opposed to left) side"
  },
  {
    "simplified": "鱼",
    "traditional": "魚",
    "tones": "yu2",
    "pinyin": "yú",
    "definition": "fish (Kangxi radical 195)"
  },
  {
    "simplified": "远",
    "traditional": "遠",
    "tones": "yuan3",
    "pinyin": "yuǎn",
    "definition": "far; distant; remote"
  },
  {
    "simplified": "运动",
    "traditional": "運動",
    "tones": "yun4dong4",
    "pinyin": "yùndòng",
    "definition": "(physical) exercise; movement; sports; campaign"
  },
  {
    "simplified": "再",
    "traditional": "再",
    "tones": "zai4",
    "pinyin": "zài",
    "definition": "again; once more"
  },
  {
    "simplified": "早上",
    "traditional": "早上",
    "tones": "zao3shang5",
    "pinyin": "zǎoshang",
    "definition": "(early) morning"
  },
  {
    "simplified": "丈夫",
    "traditional": "丈夫",
    "tones": "zhang4fu5",
    "pinyin": "zhàngfu",
    "definition": "husband; man"
  },
  {
    "simplified": "找",
    "traditional": "找",
    "tones": "zhao3",
    "pinyin": "zhǎo",
    "definition": "try to find; look for; seek; to give change"
  },
  {
    "simplified": "着",
    "traditional": "著",
    "tones": "zhe5",
    "pinyin": "zhe",
    "definition": "-ing (indicating action in progress)"
  },
  {
    "simplified": "真",
    "traditional": "真",
    "tones": "zhen1",
    "pinyin": "zhēn",
    "definition": "real; true; genuine"
  },
  {
    "simplified": "正在",
    "traditional": "正在",
    "tones": "zheng4zai4",
    "pinyin": "zhèngzài",
    "definition": "in the process of (doing something); currently"
  },
  {
    "simplified": "知道",
    "traditional": "知道",
    "tones": "zhi1dao5",
    "pinyin": "zhīdao",
    "definition": "know; be aware of"
  },
  {
    "simplified": "准备",
    "traditional": "准備",
    "tones": "zhun3bei4",
    "pinyin": "zhǔnbèi",
    "definition": "prepare; get ready"
  },
  {
    "simplified": "走",
    "traditional": "走",
    "tones": "zou3",
    "pinyin": "zǒu",
    "definition": "to walk; to go; to move (Kangxi radical 156)"
  },
  {
    "simplified": "最",
    "traditional": "最",
    "tones": "zui4",
    "pinyin": "zuì",
    "definition": "the most; -est; (indicator for superlative)"
  },
  {
    "simplified": "左边",
    "traditional": "左邊",
    "tones": "zuo3bian5",
    "pinyin": "zuǒbian",
    "definition": "the left side; the left"
  }
]